"product_code","product_name","standard_cost","list_price","difference"
"NWTB-1","Northwind Traders Chai","13.5000","18.0000","4.5000"
"NWTCO-3","Northwind Traders Syrup","7.5000","10.0000","2.5000"
"NWTCO-4","Northwind Traders Cajun Seasoning","16.5000","22.0000","5.5000"
"NWTO-5","Northwind Traders Olive Oil","16.0125","21.3500","5.3375"
"NWTJP-6","Northwind Traders Boysenberry Spread","18.7500","25.0000","6.2500"
"NWTDFN-7","Northwind Traders Dried Pears","22.5000","30.0000","7.5000"
"NWTS-8","Northwind Traders Curry Sauce","30.0000","40.0000","10.0000"
"NWTDFN-14","Northwind Traders Walnuts","17.4375","23.2500","5.8125"
"NWTCFV-17","Northwind Traders Fruit Cocktail","29.2500","39.0000","9.7500"
"NWTBGM-19","Northwind Traders Chocolate Biscuits Mix","6.9000","9.2000","2.3000"
"NWTJP-6","Northwind Traders Marmalade","60.7500","81.0000","20.2500"
"NWTBGM-21","Northwind Traders Scones","7.5000","10.0000","2.5000"
"NWTB-34","Northwind Traders Beer","10.5000","14.0000","3.5000"
"NWTCM-40","Northwind Traders Crab Meat","13.8000","18.4000","4.6000"
"NWTSO-41","Northwind Traders Clam Chowder","7.2375","9.6500","2.4125"
"NWTB-43","Northwind Traders Coffee","34.5000","46.0000","11.5000"
"NWTCA-48","Northwind Traders Chocolate","9.5625","12.7500","3.1875"
"NWTDFN-51","Northwind Traders Dried Apples","39.7500","53.0000","13.2500"
"NWTG-52","Northwind Traders Long Grain Rice","5.2500","7.0000","1.7500"
"NWTP-56","Northwind Traders Gnocchi","28.5000","38.0000","9.5000"
"NWTP-57","Northwind Traders Ravioli","14.6250","19.5000","4.8750"
"NWTS-65","Northwind Traders Hot Pepper Sauce","15.7875","21.0500","5.2625"
"NWTS-66","Northwind Traders Tomato Sauce","12.7500","17.0000","4.2500"
"NWTD-72","Northwind Traders Mozzarella","26.1000","34.8000","8.7000"
"NWTDFN-74","Northwind Traders Almonds","7.5000","10.0000","2.5000"
"NWTCO-77","Northwind Traders Mustard","9.7500","13.0000","3.2500"
"NWTDFN-80","Northwind Traders Dried Plums","3.0000","3.5000","0.5000"
"NWTB-81","Northwind Traders Green Tea","2.0000","2.9900","0.9900"
"NWTC-82","Northwind Traders Granola","2.0000","4.0000","2.0000"
"NWTCS-83","Northwind Traders Potato Chips","0.5000","1.8000","1.3000"
"NWTBGM-85","Northwind Traders Brownie Mix","9.0000","12.4900","3.4900"
"NWTBGM-86","Northwind Traders Cake Mix","10.5000","15.9900","5.4900"
"NWTB-87","Northwind Traders Tea","2.0000","4.0000","2.0000"
"NWTCFV-88","Northwind Traders Pears","1.0000","1.3000","0.3000"
"NWTCFV-89","Northwind Traders Peaches","1.0000","1.5000","0.5000"
"NWTCFV-90","Northwind Traders Pineapple","1.0000","1.8000","0.8000"
"NWTCFV-91","Northwind Traders Cherry Pie Filling","1.0000","2.0000","1.0000"
"NWTCFV-92","Northwind Traders Green Beans","1.0000","1.2000","0.2000"
"NWTCFV-93","Northwind Traders Corn","1.0000","1.2000","0.2000"
"NWTCFV-94","Northwind Traders Peas","1.0000","1.5000","0.5000"
"NWTCM-95","Northwind Traders Tuna Fish","0.5000","2.0000","1.5000"
"NWTCM-96","Northwind Traders Smoked Salmon","2.0000","4.0000","2.0000"
"NWTC-82","Northwind Traders Hot Cereal","3.0000","5.0000","2.0000"
"NWTSO-98","Northwind Traders Vegetable Soup","1.0000","1.8900","0.8900"
"NWTSO-99","Northwind Traders Chicken Soup","1.0000","1.9500","0.9500"
