"first_name","company"
"Anna","Company A"
"Antonio","Company B"
"Thomas","Company C"
"Christina","Company D"
"Martin","Company E"
"Francisco","Company F"
"Ming-Yang","Company G"
"Elizabeth","Company H"
"Sven","Company I"
"Roland","Company J"
"Peter","Company K"
"John","Company L"
"Andre","Company M"
"Carlos","Company N"
"Helena","Company O"
"Daniel","Company P"
"Jean Philippe","Company Q"
"Catherine","Company R"
"Alexander","Company S"
"George","Company T"
"Bernard","Company U"
"Luciana","Company V"
"Michael","Company W"
"Jonas","Company X"
"John","Company Y"
"Run","Company Z"
"Karen","Company AA"
"Amritansh","Company BB"
"Soo Jung","Company CC"
